\begin{thebibliography}{10}

\bibitem{BEEJ}
{\sc BEEJ JORGENSEN~HALL, B.}
\newblock Beej's guide to network programming.
\newblock Dispon\'{i}vel em:
  \url{https://beej.us/guide/bgnet/output/print/bgnet_A4_2.pdf}.
\newblock Acessado em: 21 jun. 2017.

\bibitem{IANA222}
{\sc ENGINEERS, I. E.~E.}
\newblock Service name and transport protocol port number registry.
\newblock Dispon\'{i}vel em:
  \url{https://www.iana.org/assignments/service-names-port-numbers/service-names-port-numbers.xhtml?search=22222}.
\newblock Acessado em: 23 jul. 2017.

\bibitem{VIVACE}
{\sc FOOT, G.}
\newblock Allegro vivace.
\newblock Dispon\'{i}vel em:
  \url{https://wiki.allegro.cc/index.php?title=Allegro_Vivace}.
\newblock Acessado em: 21 jun. 2017.

\bibitem{GNU}
{\sc FOUNDATION, F.~S.}
\newblock What is glibc?
\newblock Dispon\'{i}vel em: \url{https://www.gnu.org/software/libc/}.
\newblock Acessado em: 23 jul. 2017.

\bibitem{ALLEGRODOC}
{\sc HARGREAVES, S.}
\newblock Allegro copyright.
\newblock Disponível em: http://liballeg.org/license.html.
\newblock Acessado em: 21 jun. 2017.

\bibitem{ALLEGRODOWN}
{\sc HARGREAVES, S.}
\newblock Downloads.
\newblock Dispon\'{i}vel em: \url{http://liballeg.org/download.html}.
\newblock Acessado em: 21 jul. 2017.

\bibitem{ALLEGROINDEX}
{\sc HARGREAVES, S.}
\newblock Welcome to allegro.
\newblock Disponível em: http://liballeg.org/index.html.
\newblock Acessado em: 21 jul. 2017.

\bibitem{MANPOLL}
{\sc KERRISK, M.}
\newblock Linux programmer's manual - poll(2).
\newblock Dispon\'{i}vel em: http://man7.org/linux/man-pages/man2/poll.2.html.
\newblock Acessado em: 21 jun. 2017.

\bibitem{MANSOCKET}
{\sc KERRISK, M.}
\newblock Linux programmer's manual - socket(7).
\newblock Dispon\'{i}vel em:
  http://man7.org/linux/man-pages/man7/socket.7.html.
\newblock Acessado em: 21 jun. 2017.

\bibitem{NMAP}
{\sc LYON, G.}
\newblock Introduction.
\newblock Dispon\'{i}vel em: \url{https://nmap.org/book/toc.html}.
\newblock Acessado em: 25 jul. 2017.

\bibitem{MOTAFILHO}
{\sc MOTA~FILHO, J.~E.}
\newblock {\em Análise de Tráfego em Redes TCP/IP : Utilize tcpdump na
  análise de tráfegos em qualquer sistema operacional}.
\newblock S\~{a}o Paulo : Novatec Editora Ltda - BR, 2013.

\bibitem{AKIMITI}
{\sc OGAWA, A.}
\newblock Desenvolvendo com socket : Artigo em japonês.
\newblock Dispon\'{i}vel em:
  http://www.geekpage.jp/programming/linux-network/socket.php.
\newblock Acessado em: 21 jun. 2017.

\bibitem{ULLISSES1}
{\sc OLIVEIRA, U.~D.}
\newblock {\em Programando em C – Volume 1 : Fundamentos}.
\newblock Rio de Janeiro:Editora Ciência Moderna Ltda, 2008.

\bibitem{JESSE}
{\sc SCHELL, J.}
\newblock {\em The Art of Game Design : A Book of Lenses}.
\newblock Taylor and Francis Group LLC - EUA, 2015.

\bibitem{WIRE}
{\sc SHARPE, R.}
\newblock Wireshark user’s guide : Introduction.
\newblock Dispon\'{i}vel em:
  \url{https://www.wireshark.org/docs/wsug_html_chunked/ChapterIntroduction.html#ChIntroWhatIs}.
\newblock Acessado em: 21 jul. 2017.

\bibitem{SUGACHAN}
{\sc SUGA, Y.}
\newblock Comunicação entre processos cliente e servidor : Artigo em
  japonês.
\newblock Dispon\'{i}vel em:
  http://www.geocities.jp/sugachan1973/doc/funto45.html.
\newblock Acessado em: 21 jun. 2017.

\bibitem{TANENBAUMARQ}
{\sc TANENBAUM, A.~S.}
\newblock {\em Redes de Computadores}, 3~ed.
\newblock S\~{a}o Paulo : Pearson Education - BR, 2010.

\bibitem{TANENBAUMREDES}
{\sc TANENBAUM, ANDREW S.; J.~WETHERALL, D.}
\newblock {\em Redes de Computadores}, 5~ed.
\newblock S\~{a}o Paulo : Pearson Education - BR, 2011.

\bibitem{MIT}
{\sc TECHNOLOGY, M. I.~O.}
\newblock The mit license.
\newblock Dispon\'{i}vel em: https://opensource.org/licenses/MIT.
\newblock Acessado em: 25 jul. 2017.

\end{thebibliography}
