\relax 
\catcode `"\active 
\select@language{brazil}
\@writefile{toc}{\select@language{brazil}}
\@writefile{lof}{\select@language{brazil}}
\@writefile{lot}{\select@language{brazil}}
\@writefile{toc}{\contentsline {section}{\numberline {1}Introdu\IeC {\c c}\IeC {\~a}o}{1}}
\citation{MOTAFILHO}
\citation{JESSE}
\@writefile{toc}{\contentsline {section}{\numberline {2}Justificativa do Trabalho}{3}}
\@writefile{toc}{\contentsline {section}{\numberline {3}Objetivo Geral}{3}}
\@writefile{toc}{\contentsline {subsection}{\numberline {3.1}Objetivos Espec\IeC {\'\i }ficos}{3}}
\@writefile{toc}{\contentsline {section}{\numberline {4}Necessidades para o Desenvolvimento do Jogo}{3}}
\@writefile{toc}{\contentsline {subsection}{\numberline {4.1}Documento do Projeto do Jogo}{3}}
\citation{BEEJ}
\@writefile{toc}{\contentsline {subsection}{\numberline {4.2}Arquitetura de Computadores}{4}}
\@writefile{lot}{\contentsline {table}{\numberline {1}{\ignorespaces Table caption text}}{4}}
\newlabel{table:ordem}{{1}{4}}
\citation{GNU}
\citation{ULLISSES1}
\@writefile{toc}{\contentsline {subsection}{\numberline {4.3}Sistema Operacional}{5}}
\@writefile{toc}{\contentsline {subsection}{\numberline {4.4}Linguagem C}{5}}
\citation{ALLEGROINDEX}
\citation{ALLEGRODOWN}
\citation{ALLEGRODOC}
\@writefile{toc}{\contentsline {subsection}{\numberline {4.5}Biblioteca Allegro}{6}}
\@writefile{toc}{\contentsline {subsection}{\numberline {4.6}Comunica\IeC {\c c}\IeC {\~a}o em Redes}{6}}
\citation{TANENBAUMREDES}
\citation{TANENBAUMREDES}
\citation{AKIMITI}
\citation{MANSOCKET}
\citation{NMAP}
\@writefile{toc}{\contentsline {subsection}{\numberline {4.7}Nmap}{7}}
\citation{WIRE}
\@writefile{toc}{\contentsline {subsection}{\numberline {4.8}Wireshark}{8}}
\@writefile{toc}{\contentsline {section}{\numberline {5}Materiais Empregados no Projeto}{8}}
\@writefile{toc}{\contentsline {section}{\numberline {6}Metodologia}{8}}
\@writefile{lof}{\contentsline {figure}{\numberline {1}{\ignorespaces Esta imagem representa a sequ\IeC {\^e}ncia de funcionamento do jogo}}{10}}
\newlabel{graf:sequencia}{{1}{10}}
\@writefile{lof}{\contentsline {figure}{\numberline {2}{\ignorespaces Table caption text}}{12}}
\newlabel{graf:gantt}{{2}{12}}
\@writefile{toc}{\contentsline {section}{\numberline {7}Resultados do Desenvolvimento do Jogo}{13}}
\@writefile{lof}{\contentsline {figure}{\numberline {3}{\ignorespaces Imagem de aguardo do outro da conex\IeC {\~a}o de usu\IeC {\'a}rio}}{13}}
\newlabel{fig:carregando}{{3}{13}}
\citation{SUGACHAN}
\@writefile{lof}{\contentsline {figure}{\numberline {4}{\ignorespaces Imagem apresenta a {\it  interface} de jogo}}{14}}
\newlabel{fig:jogando}{{4}{14}}
\@writefile{toc}{\contentsline {subsection}{\numberline {7.1}Estudos do Sistema Operacional}{14}}
\citation{TANENBAUMARQ}
\citation{IANA222}
\@writefile{toc}{\contentsline {subsection}{\numberline {7.2}Processos e Threads}{15}}
\@writefile{toc}{\contentsline {subsection}{\numberline {7.3}Comunica\IeC {\c c}\IeC {\~a}o Cliente/Servidor}{15}}
\@writefile{toc}{\contentsline {subsubsection}{\numberline {7.3.1}Aplica\IeC {\c c}\IeC {\~a}o do Cliente}{15}}
\@writefile{lol}{\contentsline {lstlisting}{\numberline {1}Fun\IeC {\c c}\IeC {\~a}o para conectar-se ao servidor}{15}}
\citation{BEEJ}
\citation{MANPOLL}
\@writefile{lol}{\contentsline {lstlisting}{\numberline {2}Thread contendo a fun\IeC {\c c}\IeC {\~a}o poll()}{17}}
\citation{MOTAFILHO}
\@writefile{toc}{\contentsline {subsubsection}{\numberline {7.3.2}Aplica\IeC {\c c}\IeC {\~a}o do Servidor}{19}}
\citation{MANSOCKET}
\citation{TANENBAUMREDES}
\@writefile{lol}{\contentsline {lstlisting}{\numberline {3}Uso da fun\IeC {\c c}\IeC {\~a}o bind()}{20}}
\@writefile{lol}{\contentsline {lstlisting}{\numberline {4}Uso da fun\IeC {\c c}\IeC {\~a}o listen()}{20}}
\@writefile{lol}{\contentsline {lstlisting}{\numberline {5}Usando o poll no lado servidor}{21}}
\citation{VIVACE}
\@writefile{toc}{\contentsline {subsection}{\numberline {7.4}Programando a Interface Gr\IeC {\'a}fica}{22}}
\@writefile{toc}{\contentsline {subsubsection}{\numberline {7.4.1}Segmento Est\IeC {\'a}tico}{22}}
\@writefile{lol}{\contentsline {lstlisting}{\numberline {6}Inicializa\IeC {\c c}\IeC {\~a}o dos par\IeC {\^a}metros e componentes da Allegro 5}{22}}
\@writefile{lol}{\contentsline {lstlisting}{\numberline {7}Estruturas de inicializa\IeC {\c c}\IeC {\~a}o da Allegro 5}{23}}
\@writefile{toc}{\contentsline {subsubsection}{\numberline {7.4.2}Segmento Din\IeC {\^a}mico}{24}}
\@writefile{lol}{\contentsline {lstlisting}{\numberline {8}Etapa de processamento das imagens na tela}{24}}
\@writefile{toc}{\contentsline {section}{\numberline {8}Conclus\IeC {\~a}o}{25}}
\citation{MIT}
\@writefile{toc}{\contentsline {section}{\numberline {9}Trabalhos Futuros}{26}}
\bibstyle{acm}
\bibdata{TallesFagundes}
\bibcite{BEEJ}{1}
\bibcite{IANA222}{2}
\bibcite{VIVACE}{3}
\bibcite{GNU}{4}
\bibcite{ALLEGRODOC}{5}
\bibcite{ALLEGRODOWN}{6}
\bibcite{ALLEGROINDEX}{7}
\bibcite{MANPOLL}{8}
\bibcite{MANSOCKET}{9}
\bibcite{NMAP}{10}
\@writefile{toc}{\contentsline {section}{\numberline {10}Agradecimentos}{27}}
\bibcite{MOTAFILHO}{11}
\bibcite{AKIMITI}{12}
\bibcite{ULLISSES1}{13}
\bibcite{JESSE}{14}
\bibcite{WIRE}{15}
\bibcite{SUGACHAN}{16}
\bibcite{TANENBAUMARQ}{17}
\bibcite{TANENBAUMREDES}{18}
\bibcite{MIT}{19}
